INDEX VERSION 1.4+C:\Users\mbinmasjuri\OneDrive - DXC Production\Documents\DevDrv\SpringMVC\.metadata\.plugins\org.eclipse.wst.jsdt.core\indexes
3623623744.index
4131870369.index
4116878096.index
3530898950.index
2158662887.index
1502788634.index
